demux_tb.vcd
$date
	Sat Sep  6 00:57:20 2025
$end
$version
	Icarus Verilog
$end
$timescale
	10ps
$end
$scope module demux_tb $end
$var wire 5 ! set_ch [4:0] $end
$var parameter 32 " DURATION $end
$var reg 1 # clk $end
$var reg 1 $ rst $end
$scope module uut $end
$var wire 1 # clk $end
$var wire 1 $ rst $end
$var parameter 24 % CLK_DIVIDER $end
$var parameter 2 & STATE_COUNTING $end
$var parameter 2 ' STATE_PREP $end
$var parameter 2 ( STATE_UPDATE $end
$var reg 24 ) clk_count [23:0] $end
$var reg 1 * cs $end
$var reg 1 + div_clk $end
$var reg 1 , ena $end
$var reg 5 - set_ch [4:0] $end
$var reg 2 . state [1:0] $end
$var reg 1 / wr $end
$upscope $end
$upscope $end
$enddefinitions $end
$comment Show the parameter values. $end
$dumpall
b10 (
b1 '
b0 &
b1100100 %
b1001110001000000 "
$end
#0
$dumpvars
x/
bx .
bx -
x,
x+
x*
bx )
0$
0#
bx !
$end
#4167
0*
1#
#8334
0#
#10000
1$
#12501
b0 !
b0 -
b0 .
0+
0,
b1 )
1#
#16668
0#
#20835
0/
b1 )
1#
#25002
0#
#29169
b1 )
1#
#30000
0$
#33336
0#
#37503
b10 )
1#
#41670
0#
#45837
b11 )
1#
#50004
0#
#54171
b100 )
1#
#58338
0#
#62505
b101 )
1#
#66672
0#
#70839
b110 )
1#
#75006
0#
#79173
b111 )
1#
#83340
0#
#87507
b1000 )
1#
#91674
0#
#95841
b1001 )
1#
#100008
0#
#104175
b1010 )
1#
#108342
0#
#112509
b1011 )
1#
#116676
0#
#120843
b1100 )
1#
#125010
0#
#129177
b1101 )
1#
#133344
0#
#137511
b1110 )
1#
#141678
0#
#145845
b1111 )
1#
#150012
0#
#154179
b10000 )
1#
#158346
0#
#162513
b10001 )
1#
#166680
0#
#170847
b10010 )
1#
#175014
0#
#179181
b10011 )
1#
#183348
0#
#187515
b10100 )
1#
#191682
0#
#195849
b10101 )
1#
#200016
0#
#204183
b10110 )
1#
#208350
0#
#212517
b10111 )
1#
#216684
0#
#220851
b11000 )
1#
#225018
0#
#229185
b11001 )
1#
#233352
0#
#237519
b11010 )
1#
#241686
0#
#245853
b11011 )
1#
#250020
0#
#254187
b11100 )
1#
#258354
0#
#262521
b11101 )
1#
#266688
0#
#270855
b11110 )
1#
#275022
0#
#279189
b11111 )
1#
#283356
0#
#287523
b100000 )
1#
#291690
0#
#295857
b100001 )
1#
#300024
0#
#304191
b100010 )
1#
#308358
0#
#312525
b100011 )
1#
#316692
0#
#320859
b100100 )
1#
#325026
0#
#329193
b100101 )
1#
#333360
0#
#337527
b100110 )
1#
#341694
0#
#345861
b100111 )
1#
#350028
0#
#354195
b101000 )
1#
#358362
0#
#362529
b101001 )
1#
#366696
0#
#370863
b101010 )
1#
#375030
0#
#379197
b101011 )
1#
#383364
0#
#387531
b101100 )
1#
#391698
0#
#395865
b101101 )
1#
#400032
0#
#404199
b101110 )
1#
#408366
0#
#412533
b101111 )
1#
#416700
0#
#420867
b110000 )
1#
#425034
0#
#429201
b110001 )
1#
#433368
0#
#437535
b110010 )
1#
#441702
0#
#445869
b110011 )
1#
#450036
0#
#454203
b110100 )
1#
#458370
0#
#462537
b110101 )
1#
#466704
0#
#470871
b110110 )
1#
#475038
0#
#479205
b110111 )
1#
#483372
0#
#487539
b111000 )
1#
#491706
0#
#495873
b111001 )
1#
#500040
0#
#504207
b111010 )
1#
#508374
0#
#512541
b111011 )
1#
#516708
0#
#520875
b111100 )
1#
#525042
0#
#529209
b111101 )
1#
#533376
0#
#537543
b111110 )
1#
#541710
0#
#545877
b111111 )
1#
#550044
0#
#554211
b1000000 )
1#
#558378
0#
#562545
b1000001 )
1#
#566712
0#
#570879
b1000010 )
1#
#575046
0#
#579213
b1000011 )
1#
#583380
0#
#587547
b1000100 )
1#
#591714
0#
#595881
b1000101 )
1#
#600048
0#
#604215
b1000110 )
1#
#608382
0#
#612549
b1000111 )
1#
#616716
0#
#620883
b1001000 )
1#
#625050
0#
#629217
b1001001 )
1#
#633384
0#
#637551
b1001010 )
1#
#641718
0#
#645885
b1001011 )
1#
#650052
0#
#654219
b1001100 )
1#
#658386
0#
#662553
b1001101 )
1#
#666720
0#
#670887
b1001110 )
1#
#675054
0#
#679221
b1001111 )
1#
#683388
0#
#687555
b1010000 )
1#
#691722
0#
#695889
b1010001 )
1#
#700056
0#
#704223
b1010010 )
1#
#708390
0#
#712557
b1010011 )
1#
#716724
0#
#720891
b1010100 )
1#
#725058
0#
#729225
b1010101 )
1#
#733392
0#
#737559
b1010110 )
1#
#741726
0#
#745893
b1010111 )
1#
#750060
0#
#754227
b1011000 )
1#
#758394
0#
#762561
b1011001 )
1#
#766728
0#
#770895
b1011010 )
1#
#775062
0#
#779229
b1011011 )
1#
#783396
0#
#787563
b1011100 )
1#
#791730
0#
#795897
b1011101 )
1#
#800064
0#
#804231
b1011110 )
1#
#808398
0#
#812565
b1011111 )
1#
#816732
0#
#820899
b1100000 )
1#
#825066
0#
#829233
b1100001 )
1#
#833400
0#
#837567
b1100010 )
1#
#841734
0#
#845901
b1100011 )
1#
#850068
0#
#854235
b1100100 )
1#
#858402
0#
#862569
1*
b1 !
b1 -
b0 )
1+
b1 .
1#
#866736
0#
#870903
b0 .
1/
1*
b1 )
1#
#875070
0#
#879237
0/
0*
b10 )
1#
#883404
0#
#887571
b11 )
1#
#891738
0#
#895905
b100 )
1#
#900072
0#
#904239
b101 )
1#
#908406
0#
#912573
b110 )
1#
#916740
0#
#920907
b111 )
1#
#925074
0#
#929241
b1000 )
1#
#933408
0#
#937575
b1001 )
1#
#941742
0#
#945909
b1010 )
1#
#950076
0#
#954243
b1011 )
1#
#958410
0#
#962577
b1100 )
1#
#966744
0#
#970911
b1101 )
1#
#975078
0#
#979245
b1110 )
1#
#983412
0#
#987579
b1111 )
1#
#991746
0#
#995913
b10000 )
1#
#1000080
0#
#1004247
b10001 )
1#
#1008414
0#
#1012581
b10010 )
1#
#1016748
0#
#1020915
b10011 )
1#
#1025082
0#
#1029249
b10100 )
1#
#1033416
0#
#1037583
b10101 )
1#
#1041750
0#
#1045917
b10110 )
1#
#1050084
0#
#1054251
b10111 )
1#
#1058418
0#
#1062585
b11000 )
1#
#1066752
0#
#1070919
b11001 )
1#
#1075086
0#
#1079253
b11010 )
1#
#1083420
0#
#1087587
b11011 )
1#
#1091754
0#
#1095921
b11100 )
1#
#1100088
0#
#1104255
b11101 )
1#
#1108422
0#
#1112589
b11110 )
1#
#1116756
0#
#1120923
b11111 )
1#
#1125090
0#
#1129257
b100000 )
1#
#1133424
0#
#1137591
b100001 )
1#
#1141758
0#
#1145925
b100010 )
1#
#1150092
0#
#1154259
b100011 )
1#
#1158426
0#
#1162593
b100100 )
1#
#1166760
0#
#1170927
b100101 )
1#
#1175094
0#
#1179261
b100110 )
1#
#1183428
0#
#1187595
b100111 )
1#
#1191762
0#
#1195929
b101000 )
1#
#1200096
0#
#1204263
b101001 )
1#
#1208430
0#
#1212597
b101010 )
1#
#1216764
0#
#1220931
b101011 )
1#
#1225098
0#
#1229265
b101100 )
1#
#1233432
0#
#1237599
b101101 )
1#
#1241766
0#
#1245933
b101110 )
1#
#1250100
0#
#1254267
b101111 )
1#
#1258434
0#
#1262601
b110000 )
1#
#1266768
0#
#1270935
b110001 )
1#
#1275102
0#
#1279269
b110010 )
1#
#1283436
0#
#1287603
b110011 )
1#
#1291770
0#
#1295937
b110100 )
1#
#1300104
0#
#1304271
b110101 )
1#
#1308438
0#
#1312605
b110110 )
1#
#1316772
0#
#1320939
b110111 )
1#
#1325106
0#
#1329273
b111000 )
1#
#1333440
0#
#1337607
b111001 )
1#
#1341774
0#
#1345941
b111010 )
1#
#1350108
0#
#1354275
b111011 )
1#
#1358442
0#
#1362609
b111100 )
1#
#1366776
0#
#1370943
b111101 )
1#
#1375110
0#
#1379277
b111110 )
1#
#1383444
0#
#1387611
b111111 )
1#
#1391778
0#
#1395945
b1000000 )
1#
#1400112
0#
#1404279
b1000001 )
1#
#1408446
0#
#1412613
b1000010 )
1#
#1416780
0#
#1420947
b1000011 )
1#
#1425114
0#
#1429281
b1000100 )
1#
#1433448
0#
#1437615
b1000101 )
1#
#1441782
0#
#1445949
b1000110 )
1#
#1450116
0#
#1454283
b1000111 )
1#
#1458450
0#
#1462617
b1001000 )
1#
#1466784
0#
#1470951
b1001001 )
1#
#1475118
0#
#1479285
b1001010 )
1#
#1483452
0#
#1487619
b1001011 )
1#
#1491786
0#
#1495953
b1001100 )
1#
#1500120
0#
#1504287
b1001101 )
1#
#1508454
0#
#1512621
b1001110 )
1#
#1516788
0#
#1520955
b1001111 )
1#
#1525122
0#
#1529289
b1010000 )
1#
#1533456
0#
#1537623
b1010001 )
1#
#1541790
0#
#1545957
b1010010 )
1#
#1550124
0#
#1554291
b1010011 )
1#
#1558458
0#
#1562625
b1010100 )
1#
#1566792
0#
#1570959
b1010101 )
1#
#1575126
0#
#1579293
b1010110 )
1#
#1583460
0#
#1587627
b1010111 )
1#
#1591794
0#
#1595961
b1011000 )
1#
#1600128
0#
#1604295
b1011001 )
1#
#1608462
0#
#1612629
b1011010 )
1#
#1616796
0#
#1620963
b1011011 )
1#
#1625130
0#
#1629297
b1011100 )
1#
#1633464
0#
#1637631
b1011101 )
1#
#1641798
0#
#1645965
b1011110 )
1#
#1650132
0#
#1654299
b1011111 )
1#
#1658466
0#
#1662633
b1100000 )
1#
#1666800
0#
#1670967
b1100001 )
1#
#1675134
0#
#1679301
b1100010 )
1#
#1683468
0#
#1687635
b1100011 )
1#
#1691802
0#
#1695969
b1100100 )
1#
#1700136
0#
#1704303
1*
b10 !
b10 -
b0 )
0+
b1 .
1#
#1708470
0#
#1712637
b0 .
1/
1*
b1 )
1#
#1716804
0#
#1720971
0/
0*
b10 )
1#
#1725138
0#
#1729305
b11 )
1#
#1733472
0#
#1737639
b100 )
1#
#1741806
0#
#1745973
b101 )
1#
#1750140
0#
#1754307
b110 )
1#
#1758474
0#
#1762641
b111 )
1#
#1766808
0#
#1770975
b1000 )
1#
#1775142
0#
#1779309
b1001 )
1#
#1783476
0#
#1787643
b1010 )
1#
#1791810
0#
#1795977
b1011 )
1#
#1800144
0#
#1804311
b1100 )
1#
#1808478
0#
#1812645
b1101 )
1#
#1816812
0#
#1820979
b1110 )
1#
#1825146
0#
#1829313
b1111 )
1#
#1833480
0#
#1837647
b10000 )
1#
#1841814
0#
#1845981
b10001 )
1#
#1850148
0#
#1854315
b10010 )
1#
#1858482
0#
#1862649
b10011 )
1#
#1866816
0#
#1870983
b10100 )
1#
#1875150
0#
#1879317
b10101 )
1#
#1883484
0#
#1887651
b10110 )
1#
#1891818
0#
#1895985
b10111 )
1#
#1900152
0#
#1904319
b11000 )
1#
#1908486
0#
#1912653
b11001 )
1#
#1916820
0#
#1920987
b11010 )
1#
#1925154
0#
#1929321
b11011 )
1#
#1933488
0#
#1937655
b11100 )
1#
#1941822
0#
#1945989
b11101 )
1#
#1950156
0#
#1954323
b11110 )
1#
#1958490
0#
#1962657
b11111 )
1#
#1966824
0#
#1970991
b100000 )
1#
#1975158
0#
#1979325
b100001 )
1#
#1983492
0#
#1987659
b100010 )
1#
#1991826
0#
#1995993
b100011 )
1#
#2000160
0#
#2004327
b100100 )
1#
#2008494
0#
#2012661
b100101 )
1#
#2016828
0#
#2020995
b100110 )
1#
#2025162
0#
#2029329
b100111 )
1#
#2033496
0#
#2037663
b101000 )
1#
#2041830
0#
#2045997
b101001 )
1#
#2050164
0#
#2054331
b101010 )
1#
#2058498
0#
#2062665
b101011 )
1#
#2066832
0#
#2070999
b101100 )
1#
#2075166
0#
#2079333
b101101 )
1#
#2083500
0#
#2087667
b101110 )
1#
#2091834
0#
#2096001
b101111 )
1#
#2100168
0#
#2104335
b110000 )
1#
#2108502
0#
#2112669
b110001 )
1#
#2116836
0#
#2121003
b110010 )
1#
#2125170
0#
#2129337
b110011 )
1#
#2133504
0#
#2137671
b110100 )
1#
#2141838
0#
#2146005
b110101 )
1#
#2150172
0#
#2154339
b110110 )
1#
#2158506
0#
#2162673
b110111 )
1#
#2166840
0#
#2171007
b111000 )
1#
#2175174
0#
#2179341
b111001 )
1#
#2183508
0#
#2187675
b111010 )
1#
#2191842
0#
#2196009
b111011 )
1#
#2200176
0#
#2204343
b111100 )
1#
#2208510
0#
#2212677
b111101 )
1#
#2216844
0#
#2221011
b111110 )
1#
#2225178
0#
#2229345
b111111 )
1#
#2233512
0#
#2237679
b1000000 )
1#
#2241846
0#
#2246013
b1000001 )
1#
#2250180
0#
#2254347
b1000010 )
1#
#2258514
0#
#2262681
b1000011 )
1#
#2266848
0#
#2271015
b1000100 )
1#
#2275182
0#
#2279349
b1000101 )
1#
#2283516
0#
#2287683
b1000110 )
1#
#2291850
0#
#2296017
b1000111 )
1#
#2300184
0#
#2304351
b1001000 )
1#
#2308518
0#
#2312685
b1001001 )
1#
#2316852
0#
#2321019
b1001010 )
1#
#2325186
0#
#2329353
b1001011 )
1#
#2333520
0#
#2337687
b1001100 )
1#
#2341854
0#
#2346021
b1001101 )
1#
#2350188
0#
#2354355
b1001110 )
1#
#2358522
0#
#2362689
b1001111 )
1#
#2366856
0#
#2371023
b1010000 )
1#
#2375190
0#
#2379357
b1010001 )
1#
#2383524
0#
#2387691
b1010010 )
1#
#2391858
0#
#2396025
b1010011 )
1#
#2400192
0#
#2404359
b1010100 )
1#
#2408526
0#
#2412693
b1010101 )
1#
#2416860
0#
#2421027
b1010110 )
1#
#2425194
0#
#2429361
b1010111 )
1#
#2433528
0#
#2437695
b1011000 )
1#
#2441862
0#
#2446029
b1011001 )
1#
#2450196
0#
#2454363
b1011010 )
1#
#2458530
0#
#2462697
b1011011 )
1#
#2466864
0#
#2471031
b1011100 )
1#
#2475198
0#
#2479365
b1011101 )
1#
#2483532
0#
#2487699
b1011110 )
1#
#2491866
0#
#2496033
b1011111 )
1#
#2500200
0#
#2504367
b1100000 )
1#
#2508534
0#
#2512701
b1100001 )
1#
#2516868
0#
#2521035
b1100010 )
1#
#2525202
0#
#2529369
b1100011 )
1#
#2533536
0#
#2537703
b1100100 )
1#
#2541870
0#
#2546037
1*
b11 !
b11 -
b0 )
1+
b1 .
1#
#2550204
0#
#2554371
b0 .
1/
1*
b1 )
1#
#2558538
0#
#2562705
0/
0*
b10 )
1#
#2566872
0#
#2571039
b11 )
1#
#2575206
0#
#2579373
b100 )
1#
#2583540
0#
#2587707
b101 )
1#
#2591874
0#
#2596041
b110 )
1#
#2600208
0#
#2604375
b111 )
1#
#2608542
0#
#2612709
b1000 )
1#
#2616876
0#
#2621043
b1001 )
1#
#2625210
0#
#2629377
b1010 )
1#
#2633544
0#
#2637711
b1011 )
1#
#2641878
0#
#2646045
b1100 )
1#
#2650212
0#
#2654379
b1101 )
1#
#2658546
0#
#2662713
b1110 )
1#
#2666880
0#
#2671047
b1111 )
1#
#2675214
0#
#2679381
b10000 )
1#
#2683548
0#
#2687715
b10001 )
1#
#2691882
0#
#2696049
b10010 )
1#
#2700216
0#
#2704383
b10011 )
1#
#2708550
0#
#2712717
b10100 )
1#
#2716884
0#
#2721051
b10101 )
1#
#2725218
0#
#2729385
b10110 )
1#
#2733552
0#
#2737719
b10111 )
1#
#2741886
0#
#2746053
b11000 )
1#
#2750220
0#
#2754387
b11001 )
1#
#2758554
0#
#2762721
b11010 )
1#
#2766888
0#
#2771055
b11011 )
1#
#2775222
0#
#2779389
b11100 )
1#
#2783556
0#
#2787723
b11101 )
1#
#2791890
0#
#2796057
b11110 )
1#
#2800224
0#
#2804391
b11111 )
1#
#2808558
0#
#2812725
b100000 )
1#
#2816892
0#
#2821059
b100001 )
1#
#2825226
0#
#2829393
b100010 )
1#
#2833560
0#
#2837727
b100011 )
1#
#2841894
0#
#2846061
b100100 )
1#
#2850228
0#
#2854395
b100101 )
1#
#2858562
0#
#2862729
b100110 )
1#
#2866896
0#
#2871063
b100111 )
1#
#2875230
0#
#2879397
b101000 )
1#
#2883564
0#
#2887731
b101001 )
1#
#2891898
0#
#2896065
b101010 )
1#
#2900232
0#
#2904399
b101011 )
1#
#2908566
0#
#2912733
b101100 )
1#
#2916900
0#
#2921067
b101101 )
1#
#2925234
0#
#2929401
b101110 )
1#
#2933568
0#
#2937735
b101111 )
1#
#2941902
0#
#2946069
b110000 )
1#
#2950236
0#
#2954403
b110001 )
1#
#2958570
0#
#2962737
b110010 )
1#
#2966904
0#
#2971071
b110011 )
1#
#2975238
0#
#2979405
b110100 )
1#
#2983572
0#
#2987739
b110101 )
1#
#2991906
0#
#2996073
b110110 )
1#
#3000240
0#
#3004407
b110111 )
1#
#3008574
0#
#3012741
b111000 )
1#
#3016908
0#
#3021075
b111001 )
1#
#3025242
0#
#3029409
b111010 )
1#
#3033576
0#
#3037743
b111011 )
1#
#3041910
0#
#3046077
b111100 )
1#
#3050244
0#
#3054411
b111101 )
1#
#3058578
0#
#3062745
b111110 )
1#
#3066912
0#
#3071079
b111111 )
1#
#3075246
0#
#3079413
b1000000 )
1#
#3083580
0#
#3087747
b1000001 )
1#
#3091914
0#
#3096081
b1000010 )
1#
#3100248
0#
#3104415
b1000011 )
1#
#3108582
0#
#3112749
b1000100 )
1#
#3116916
0#
#3121083
b1000101 )
1#
#3125250
0#
#3129417
b1000110 )
1#
#3133584
0#
#3137751
b1000111 )
1#
#3141918
0#
#3146085
b1001000 )
1#
#3150252
0#
#3154419
b1001001 )
1#
#3158586
0#
#3162753
b1001010 )
1#
#3166920
0#
#3171087
b1001011 )
1#
#3175254
0#
#3179421
b1001100 )
1#
#3183588
0#
#3187755
b1001101 )
1#
#3191922
0#
#3196089
b1001110 )
1#
#3200256
0#
#3204423
b1001111 )
1#
#3208590
0#
#3212757
b1010000 )
1#
#3216924
0#
#3221091
b1010001 )
1#
#3225258
0#
#3229425
b1010010 )
1#
#3233592
0#
#3237759
b1010011 )
1#
#3241926
0#
#3246093
b1010100 )
1#
#3250260
0#
#3254427
b1010101 )
1#
#3258594
0#
#3262761
b1010110 )
1#
#3266928
0#
#3271095
b1010111 )
1#
#3275262
0#
#3279429
b1011000 )
1#
#3283596
0#
#3287763
b1011001 )
1#
#3291930
0#
#3296097
b1011010 )
1#
#3300264
0#
#3304431
b1011011 )
1#
#3308598
0#
#3312765
b1011100 )
1#
#3316932
0#
#3321099
b1011101 )
1#
#3325266
0#
#3329433
b1011110 )
1#
#3333600
0#
#3337767
b1011111 )
1#
#3341934
0#
#3346101
b1100000 )
1#
#3350268
0#
#3354435
b1100001 )
1#
#3358602
0#
#3362769
b1100010 )
1#
#3366936
0#
#3371103
b1100011 )
1#
#3375270
0#
#3379437
b1100100 )
1#
#3383604
0#
#3387771
1*
b100 !
b100 -
b0 )
0+
b1 .
1#
#3391938
0#
#3396105
b0 .
1/
1*
b1 )
1#
#3400272
0#
#3404439
0/
0*
b10 )
1#
#3408606
0#
#3412773
b11 )
1#
#3416940
0#
#3421107
b100 )
1#
#3425274
0#
#3429441
b101 )
1#
#3433608
0#
#3437775
b110 )
1#
#3441942
0#
#3446109
b111 )
1#
#3450276
0#
#3454443
b1000 )
1#
#3458610
0#
#3462777
b1001 )
1#
#3466944
0#
#3471111
b1010 )
1#
#3475278
0#
#3479445
b1011 )
1#
#3483612
0#
#3487779
b1100 )
1#
#3491946
0#
#3496113
b1101 )
1#
#3500280
0#
#3504447
b1110 )
1#
#3508614
0#
#3512781
b1111 )
1#
#3516948
0#
#3521115
b10000 )
1#
#3525282
0#
#3529449
b10001 )
1#
#3533616
0#
#3537783
b10010 )
1#
#3541950
0#
#3546117
b10011 )
1#
#3550284
0#
#3554451
b10100 )
1#
#3558618
0#
#3562785
b10101 )
1#
#3566952
0#
#3571119
b10110 )
1#
#3575286
0#
#3579453
b10111 )
1#
#3583620
0#
#3587787
b11000 )
1#
#3591954
0#
#3596121
b11001 )
1#
#3600288
0#
#3604455
b11010 )
1#
#3608622
0#
#3612789
b11011 )
1#
#3616956
0#
#3621123
b11100 )
1#
#3625290
0#
#3629457
b11101 )
1#
#3633624
0#
#3637791
b11110 )
1#
#3641958
0#
#3646125
b11111 )
1#
#3650292
0#
#3654459
b100000 )
1#
#3658626
0#
#3662793
b100001 )
1#
#3666960
0#
#3671127
b100010 )
1#
#3675294
0#
#3679461
b100011 )
1#
#3683628
0#
#3687795
b100100 )
1#
#3691962
0#
#3696129
b100101 )
1#
#3700296
0#
#3704463
b100110 )
1#
#3708630
0#
#3712797
b100111 )
1#
#3716964
0#
#3721131
b101000 )
1#
#3725298
0#
#3729465
b101001 )
1#
#3733632
0#
#3737799
b101010 )
1#
#3741966
0#
#3746133
b101011 )
1#
#3750300
0#
#3754467
b101100 )
1#
#3758634
0#
#3762801
b101101 )
1#
#3766968
0#
#3771135
b101110 )
1#
#3775302
0#
#3779469
b101111 )
1#
#3783636
0#
#3787803
b110000 )
1#
#3791970
0#
#3796137
b110001 )
1#
#3800304
0#
#3804471
b110010 )
1#
#3808638
0#
#3812805
b110011 )
1#
#3816972
0#
#3821139
b110100 )
1#
#3825306
0#
#3829473
b110101 )
1#
#3833640
0#
#3837807
b110110 )
1#
#3841974
0#
#3846141
b110111 )
1#
#3850308
0#
#3854475
b111000 )
1#
#3858642
0#
#3862809
b111001 )
1#
#3866976
0#
#3871143
b111010 )
1#
#3875310
0#
#3879477
b111011 )
1#
#3883644
0#
#3887811
b111100 )
1#
#3891978
0#
#3896145
b111101 )
1#
#3900312
0#
#3904479
b111110 )
1#
#3908646
0#
#3912813
b111111 )
1#
#3916980
0#
#3921147
b1000000 )
1#
#3925314
0#
#3929481
b1000001 )
1#
#3933648
0#
#3937815
b1000010 )
1#
#3941982
0#
#3946149
b1000011 )
1#
#3950316
0#
#3954483
b1000100 )
1#
#3958650
0#
#3962817
b1000101 )
1#
#3966984
0#
#3971151
b1000110 )
1#
#3975318
0#
#3979485
b1000111 )
1#
#3983652
0#
#3987819
b1001000 )
1#
#3991986
0#
#3996153
b1001001 )
1#
